"Direct"	"EBLUP"	"Residuals"	"Sqrt.mse"
1.31505574	1.31515569750924	-9.99575092435201e-05	0.0158186908694694
1.26148538	1.26158533713102	-9.99571310198455e-05	0.0158195371696525
1.20468282	1.20478276303545	-9.99430354511333e-05	0.0158205291621391
1.37641348	1.37651345096837	-9.99709683702221e-05	0.0237186804083336
1.3515003	1.35160024826939	-9.99482693868625e-05	0.0259175337125956
1.40074604	1.40084598259626	-9.9942596262892e-05	0.0230270294111105
