   Domain Individual Times Ones Edad3         Y
1      11         11     1    1 0,255 1,2549962
2      11         21     1    1     0 1,0013518
3      11         31     1    1 0,594 1,5940421
4      11         41     1    1 0,501 1,5003916
5      11         51     1    1 0,226  1,224497
6      11         11     2    1     0 1,0004159
7      11         21     2    1 0,119 1,1192045
8      11         31     2    1  0,53 1,5302057
9      11         41     2    1 0,539 1,5386813
10     11         51     2    1  0,12 1,1189195
11     11         11     3    1     0 0,9996203
12     11         21     3    1 0,182 1,1820161
13     11         31     3    1 0,331  1,331034
14     11         41     3    1 0,401 1,4014888
15     11         51     3    1 0,109 1,1092549
16     12         12     1    1 0,513 1,5119971
17     12         22     1    1 0,155 1,1546496
18     12         32     1    1 0,335 1,3335957
19     12         42     1    1 0,599  1,598694
20     12         52     1    1 0,282  1,283131
21     12         12     2    1 0,539 1,5383465
22     12         22     2    1 0,179 1,1790425
23     12         32     2    1  0,22 1,2204854
24     12         42     2    1 0,637 1,6366185
25     12         52     2    1 0,183 1,1830086
26     12         12     3    1 0,662 1,6617186
27     12         22     3    1 0,123 1,1226089
28     12         32     3    1 0,198 1,1982272
29     12         42     3    1 0,663 1,6636939
30     12         52     3    1 0,358 1,3574816
